{
  "project_info": {
    "project_number": "597422133769",
    "firebase_url": "https://trackbuddy-67e10.firebaseio.com",
    "project_id": "trackbuddy-67e10",
    "storage_bucket": "trackbuddy-67e10.appspot.com"
  },
  "client": [
    {
      "client_info": {
        "mobilesdk_app_id": "1:597422133769:android:540ce0ff60c74519",
        "android_client_info": {
          "package_name": "com.example.ljenster.myapplication"
        }
      },
      "oauth_client": [
        {
          "client_id": "597422133769-jui23brpbnufbuchl0g7ejia572ijpt4.apps.googleusercontent.com",
          "client_type": 3
        }
      ],
      "api_key": [
        {
          "current_key": "AIzaSyCXEm8wvDXgUD40SfFYIY8MAlXRtwVd_VM"
        }
      ],
      "services": {
        "analytics_service": {
          "status": 1
        },
        "appinvite_service": {
          "status": 1,
          "other_platform_oauth_client": []
        },
        "ads_service": {
          "status": 2
        }
      }
    }
  ],
  "configuration_version": "1"
}